An Extension of Tidymodels Supporting Offset Terms • offsetreg
…
You can install the development version of offsetreg from GitHub with:

# install.packages("devtools")
devtools::install_github("mattheaphy/offsetreg")

Basic usage

The us_deaths data set contains United States deaths, population estimates, and crude mortality rates for ages 25+ from the CDC Multiple Causes of Death Files for the years 2011-2020.

library(offsetreg)
library(parsnip)

us_deaths
#> # A tibble: 140 × 6
#>    gender age_group  year deaths population       qx
#>    <fct>  <fct>     <int>  <dbl>      <dbl>    <dbl>
#>  1 Female 25-34      2011  13663   20746335 0.000659
#>  2 Female 25-34      2012  13808   20970529 0.000658
#>  3 Female 25-34      2013  14001   21203096 0.000660
#>  4 Female 25-34      2014  14480   21546290 0.000672
#>  5 Female 25-34      2015  15736   21838064 0.000721
#>  6 Female 25-34      2016  17359   22077505 0.000786
#>  7 Female 25-34      2017  18066   22351311 0.000808
#>  8 Female 25-34      2018  17980   22487065 0.000800
#>  9 Female 25-34      2019  17827   22581141 0.000789
#> 10 Female 25-34      2020  21654   22625267 0.000957
#> # ℹ 130 more rows
…
